{"EURUSD": {"code": "EUR", "codein": "USD", "valor":"1.14"}}
{"EURGBP": {"code": "EUR", "codein": "GBP", "valor":"1.19"}}
{"EURYEN": {"code": "EUR", "codein": "YEN", "valor":"0,0076"}}
{"EURREAL": {"code": "EUR", "codein": "REAL", "valor":"0,17"}}
